{
  "categories": [
    {
      "id": 1019,
      "name": "Universe",
      "parent_id": null
    },
    {
      "id": 1000,
      "name": "State",
      "parent_id": null
    },
    {
      "id": 1001,
      "name": "NSW",
      "parent_id": 1000
    },
    {
      "id": 1002,
      "name": "VIC",
      "parent_id": 1000
    },
    {
      "id": 1003,
      "name": "QLD",
      "parent_id": 1000
    },
    {
      "id": 1004,
      "name": "WA",
      "parent_id": 1000
    },
    {
      "id": 1005,
      "name": "ACT",
      "parent_id": 1000
    },
    {
      "id": 1006,
      "name": "Nationald",
      "parent_id": 1007
    },
    {
      "id": 1007,
      "name": "World",
      "parent_id": null
    },
    {
      "id": 10099,
      "name": "WorldB",
      "parent_id": null
    }
  ]
}